ç¬¬4è®² dplyræ•°æ®å¤„ç†
…
# Use as.data.table()/as.data.frame()/
# as_tibble() to access results
```

]

.code70[

```
*#> Source: local data table [1,201 x 4]
*#> Call:   setorder(copy(`_DT1`)[, `:=`(arr_delay = arr_delay/60)][, .(dep_delay = mean(dep_delay), 
*#>     arr_delay = mean(arr_delay), n = .N), keyby = .(tailnum)], 
*#>     -arr_delay, na.last = TRUE)[n > 100]
#> 
#>   tailnum dep_delay arr_delay     n
#>   <chr>       <dbl>     <dbl> <int>
#> 1 N826UA       26.7     0.326   120
#> 2 N929DL       25.3     0.293   108
#> 3 N431UA       23.9     0.272   104
#> 4 N342NW       21.1     0.267   111
#> 5 N567UA       18.7     0.250   105
#> 6 N850UA       23.9     0.248   130
#> # â„¹ 1,195 more rows
…
